[
  {
    "NAME":"t2.micro",
    "ISCOMPUTEOPTIMIZED":"0",
    "CPU":1,
    "ECU":"Variable",
    "MEMORY":1,
    "INSTANCE STORAGE":"EBS Only",
    "SIZE":0,
    "ISSSD":"0",
    "LINUX/UNIX USAGE":"$0.015 per Hour",
    "CENTSPERHOUR":2,
    "CCU VALUE":1.05,
    "CCU":1,
    "AVAILABLEINSTANCES":"3"
  },
  {
    "NAME":"t2.medium",
    "ISCOMPUTEOPTIMIZED":"0",
    "CPU":2,
    "ECU":"Variable",
    "MEMORY":4,
    "INSTANCE STORAGE":"EBS Only",
    "SIZE":0,
    "ISSSD":"0",
    "LINUX/UNIX USAGE":"$0.060 per Hour",
    "CENTSPERHOUR":6,
    "CCU VALUE":2.2,
    "CCU":2,
    "AVAILABLEINSTANCES":"3"
  },
  {
    "NAME":"m3.large",
    "ISCOMPUTEOPTIMIZED":"0",
    "CPU":2,
    "ECU":"6.5",
    "MEMORY":7.5,
    "INSTANCE STORAGE":"1 x 32 SSD",
    "SIZE":32,
    "ISSSD":"1",
    "LINUX/UNIX USAGE":"$0.166 per Hour",
    "CENTSPERHOUR":17,
    "CCU VALUE":4.975,
    "CCU":5,
    "AVAILABLEINSTANCES":"1"
  }
]