[
  {
    "NAME":"t2.micro",
    "ISCOMPUTEOPTIMIZED":"0",
    "CPU":1,
    "ECU":"Variable",
    "MEMORY":1,
    "INSTANCE STORAGE":"EBS Only",
    "SIZE":0,
    "ISSSD":"0",
    "LINUX/UNIX USAGE":"$0.015 per Hour",
    "CENTSPERHOUR":2,
    "CCU VALUE":1.05,
    "CCU":1,
    "AVAILABLEINSTANCES":"1"
  },
  {
    "NAME":"t2.small",
    "ISCOMPUTEOPTIMIZED":"0",
    "CPU":1,
    "ECU":"Variable",
    "MEMORY":2,
    "INSTANCE STORAGE":"EBS Only",
    "SIZE":0,
    "ISSSD":"0",
    "LINUX/UNIX USAGE":"$0.030 per Hour",
    "CENTSPERHOUR":3,
    "CCU VALUE":1.1,
    "CCU":1,
    "AVAILABLEINSTANCES":"1"
  },
  {
    "NAME":"t2.medium",
    "ISCOMPUTEOPTIMIZED":"0",
    "CPU":2,
    "ECU":"Variable",
    "MEMORY":4,
    "INSTANCE STORAGE":"EBS Only",
    "SIZE":0,
    "ISSSD":"0",
    "LINUX/UNIX USAGE":"$0.060 per Hour",
    "CENTSPERHOUR":6,
    "CCU VALUE":2.2,
    "CCU":2,
    "AVAILABLEINSTANCES":"1"
  },
  {
    "NAME":"m3.medium",
    "ISCOMPUTEOPTIMIZED":"0",
    "CPU":1,
    "ECU":"3",
    "MEMORY":3.75,
    "INSTANCE STORAGE":"1 x 4 SSD",
    "SIZE":4,
    "ISSSD":"1",
    "LINUX/UNIX USAGE":"$0.083 per Hour",
    "CENTSPERHOUR":8,
    "CCU VALUE":2.3875,
    "CCU":2,
    "AVAILABLEINSTANCES":"1"
  },
  {
    "NAME":"m3.large",
    "ISCOMPUTEOPTIMIZED":"0",
    "CPU":2,
    "ECU":"6.5",
    "MEMORY":7.5,
    "INSTANCE STORAGE":"1 x 32 SSD",
    "SIZE":32,
    "ISSSD":"1",
    "LINUX/UNIX USAGE":"$0.166 per Hour",
    "CENTSPERHOUR":17,
    "CCU VALUE":4.975,
    "CCU":5,
    "AVAILABLEINSTANCES":"1"
  },
  {
    "NAME":"m3.xlarge",
    "ISCOMPUTEOPTIMIZED":"0",
    "CPU":4,
    "ECU":"13",
    "MEMORY":15,
    "INSTANCE STORAGE":"2 x 40 SSD",
    "SIZE":80,
    "ISSSD":"1",
    "LINUX/UNIX USAGE":"$0.332 per Hour",
    "CENTSPERHOUR":33,
    "CCU VALUE":9.75,
    "CCU":10,
    "AVAILABLEINSTANCES":"1"
  },
  {
    "NAME":"m3.2xlarge",
    "ISCOMPUTEOPTIMIZED":"0",
    "CPU":8,
    "ECU":"26",
    "MEMORY":30,
    "INSTANCE STORAGE":"2 x 80 SSD",
    "SIZE":160,
    "ISSSD":"1",
    "LINUX/UNIX USAGE":"$0.665 per Hour",
    "CENTSPERHOUR":67,
    "CCU VALUE":18.5,
    "CCU":19,
    "AVAILABLEINSTANCES":"1"
  },
  {
    "NAME":"c4.large",
    "ISCOMPUTEOPTIMIZED":"1",
    "CPU":2,
    "ECU":"8",
    "MEMORY":3.75,
    "INSTANCE STORAGE":"EBS Only",
    "SIZE":0,
    "ISSSD":"0",
    "LINUX/UNIX USAGE":"$0.148 per Hour",
    "CENTSPERHOUR":15,
    "CCU VALUE":3.1875,
    "CCU":3,
    "AVAILABLEINSTANCES":"1"
  },
  {
    "NAME":"c4.xlarge",
    "ISCOMPUTEOPTIMIZED":"1",
    "CPU":4,
    "ECU":"16",
    "MEMORY":7.5,
    "INSTANCE STORAGE":"EBS Only",
    "SIZE":0,
    "ISSSD":"0",
    "LINUX/UNIX USAGE":"$0.296 per Hour",
    "CENTSPERHOUR":30,
    "CCU VALUE":5.375,
    "CCU":5,
    "AVAILABLEINSTANCES":"1"
  },
  {
    "NAME":"c4.2xlarge",
    "ISCOMPUTEOPTIMIZED":"1",
    "CPU":8,
    "ECU":"31",
    "MEMORY":15,
    "INSTANCE STORAGE":"EBS Only",
    "SIZE":0,
    "ISSSD":"0",
    "LINUX/UNIX USAGE":"$0.592 per Hour",
    "CENTSPERHOUR":59,
    "CCU VALUE":9.75,
    "CCU":10,
    "AVAILABLEINSTANCES":"1"
  },
  {
    "NAME":"c4.4xlarge",
    "ISCOMPUTEOPTIMIZED":"1",
    "CPU":16,
    "ECU":"62",
    "MEMORY":30,
    "INSTANCE STORAGE":"EBS Only",
    "SIZE":0,
    "ISSSD":"0",
    "LINUX/UNIX USAGE":"$1.184 per Hour",
    "CENTSPERHOUR":118,
    "CCU VALUE":18.5,
    "CCU":19,
    "AVAILABLEINSTANCES":"1"
  },
  {
    "NAME":"c4.8xlarge",
    "ISCOMPUTEOPTIMIZED":"1",
    "CPU":36,
    "ECU":"132",
    "MEMORY":60,
    "INSTANCE STORAGE":"EBS Only",
    "SIZE":0,
    "ISSSD":"0",
    "LINUX/UNIX USAGE":"$2.368 per Hour",
    "CENTSPERHOUR":237,
    "CCU VALUE":40,
    "CCU":40,
    "AVAILABLEINSTANCES":"1"
  },
  {
    "NAME":"c3.large",
    "ISCOMPUTEOPTIMIZED":"1",
    "CPU":2,
    "ECU":"7",
    "MEMORY":3.75,
    "INSTANCE STORAGE":"2 x 16 SSD",
    "SIZE":32,
    "ISSSD":"1",
    "LINUX/UNIX USAGE":"$0.129 per Hour",
    "CENTSPERHOUR":13,
    "CCU VALUE":5.7875,
    "CCU":6,
    "AVAILABLEINSTANCES":"1"
  },
  {
    "NAME":"c3.xlarge",
    "ISCOMPUTEOPTIMIZED":"1",
    "CPU":4,
    "ECU":"14",
    "MEMORY":7.5,
    "INSTANCE STORAGE":"2 x 40 SSD",
    "SIZE":80,
    "ISSSD":"1",
    "LINUX/UNIX USAGE":"$0.258 per Hour",
    "CENTSPERHOUR":26,
    "CCU VALUE":10.375,
    "CCU":10,
    "AVAILABLEINSTANCES":"1"
  },
  {
    "NAME":"c3.2xlarge",
    "ISCOMPUTEOPTIMIZED":"1",
    "CPU":8,
    "ECU":"28",
    "MEMORY":15,
    "INSTANCE STORAGE":"2 x 80 SSD",
    "SIZE":160,
    "ISSSD":"1",
    "LINUX/UNIX USAGE":"$0.516 per Hour",
    "CENTSPERHOUR":52,
    "CCU VALUE":18.75,
    "CCU":19,
    "AVAILABLEINSTANCES":"1"
  },
  {
    "NAME":"c3.4xlarge",
    "ISCOMPUTEOPTIMIZED":"1",
    "CPU":16,
    "ECU":"55",
    "MEMORY":30,
    "INSTANCE STORAGE":"2 x 160 SSD",
    "SIZE":320,
    "ISSSD":"1",
    "LINUX/UNIX USAGE":"$1.032 per Hour",
    "CENTSPERHOUR":103,
    "CCU VALUE":35.5,
    "CCU":36,
    "AVAILABLEINSTANCES":"1"
  },
  {
    "NAME":"c3.8xlarge",
    "ISCOMPUTEOPTIMIZED":"1",
    "CPU":32,
    "ECU":"108",
    "MEMORY":60,
    "INSTANCE STORAGE":"2 x 320 SSD",
    "SIZE":640,
    "ISSSD":"1",
    "LINUX/UNIX USAGE":"$2.064 per Hour",
    "CENTSPERHOUR":206,
    "CCU VALUE":69,
    "CCU":69,
    "AVAILABLEINSTANCES":"1"
  }
]